PCBNEW-LibModule-V1  
# encoding utf-8
Units mm
$INDEX
DIL16
SO16
$EndINDEX
$MODULE DIL16
Po 0 0 0 15 00000000 00000000 ~~
Li DIL16
Cd <b>Dual In Line Package</b>
Sc 00000000
At STD
Op 0 0 0
.SolderMask 0
.SolderPaste 0
T0 -11.1774 0.381046 1.00013 1.00013 900 0.05 N V 21 "DIL16"
T1 -4.32008 1.00015e-06 1.00048 1.00048 0 0.05 N V 21 "VAL**"
DS 10.16 -2.921 -10.16 -2.921 0.1524 21
DS -10.16 2.921 10.16 2.921 0.1524 21
DS 10.16 -2.921 10.16 2.921 0.1524 21
DS -10.16 -2.921 -10.16 -1.016 0.1524 21
DS -10.16 2.921 -10.16 1.016 0.1524 21
DA -10.16 0 -10.16 1.016 -1800 0.1524 21
$PAD
Sh "1" O 2.6416 1.3208 0 0 900
Dr 0.8128 0 0
At STD N 00C0FFFF
.SolderMask 0
Ne 0 ""
Po -8.89 3.81
$EndPAD
$PAD
Sh "2" O 2.6416 1.3208 0 0 900
Dr 0.8128 0 0
At STD N 00C0FFFF
.SolderMask 0
Ne 0 ""
Po -6.35 3.81
$EndPAD
$PAD
Sh "7" O 2.6416 1.3208 0 0 900
Dr 0.8128 0 0
At STD N 00C0FFFF
.SolderMask 0
Ne 0 ""
Po 6.35 3.81
$EndPAD
$PAD
Sh "8" O 2.6416 1.3208 0 0 900
Dr 0.8128 0 0
At STD N 00C0FFFF
.SolderMask 0
Ne 0 ""
Po 8.89 3.81
$EndPAD
$PAD
Sh "3" O 2.6416 1.3208 0 0 900
Dr 0.8128 0 0
At STD N 00C0FFFF
.SolderMask 0
Ne 0 ""
Po -3.81 3.81
$EndPAD
$PAD
Sh "4" O 2.6416 1.3208 0 0 900
Dr 0.8128 0 0
At STD N 00C0FFFF
.SolderMask 0
Ne 0 ""
Po -1.27 3.81
$EndPAD
$PAD
Sh "6" O 2.6416 1.3208 0 0 900
Dr 0.8128 0 0
At STD N 00C0FFFF
.SolderMask 0
Ne 0 ""
Po 3.81 3.81
$EndPAD
$PAD
Sh "5" O 2.6416 1.3208 0 0 900
Dr 0.8128 0 0
At STD N 00C0FFFF
.SolderMask 0
Ne 0 ""
Po 1.27 3.81
$EndPAD
$PAD
Sh "9" O 2.6416 1.3208 0 0 900
Dr 0.8128 0 0
At STD N 00C0FFFF
.SolderMask 0
Ne 0 ""
Po 8.89 -3.81
$EndPAD
$PAD
Sh "10" O 2.6416 1.3208 0 0 900
Dr 0.8128 0 0
At STD N 00C0FFFF
.SolderMask 0
Ne 0 ""
Po 6.35 -3.81
$EndPAD
$PAD
Sh "11" O 2.6416 1.3208 0 0 900
Dr 0.8128 0 0
At STD N 00C0FFFF
.SolderMask 0
Ne 0 ""
Po 3.81 -3.81
$EndPAD
$PAD
Sh "12" O 2.6416 1.3208 0 0 900
Dr 0.8128 0 0
At STD N 00C0FFFF
.SolderMask 0
Ne 0 ""
Po 1.27 -3.81
$EndPAD
$PAD
Sh "13" O 2.6416 1.3208 0 0 900
Dr 0.8128 0 0
At STD N 00C0FFFF
.SolderMask 0
Ne 0 ""
Po -1.27 -3.81
$EndPAD
$PAD
Sh "14" O 2.6416 1.3208 0 0 900
Dr 0.8128 0 0
At STD N 00C0FFFF
.SolderMask 0
Ne 0 ""
Po -3.81 -3.81
$EndPAD
$PAD
Sh "15" O 2.6416 1.3208 0 0 900
Dr 0.8128 0 0
At STD N 00C0FFFF
.SolderMask 0
Ne 0 ""
Po -6.35 -3.81
$EndPAD
$PAD
Sh "16" O 2.6416 1.3208 0 0 900
Dr 0.8128 0 0
At STD N 00C0FFFF
.SolderMask 0
Ne 0 ""
Po -8.89 -3.81
$EndPAD
$EndMODULE DIL16
$MODULE SO16
Po 0 0 0 15 00000000 00000000 ~~
Li SO16
Cd <b>Small Outline Package</b>
Sc 00000000
At SMD
Op 0 0 0
.SolderMask 0
.SolderPaste 0
T0 -6.11069 -0.763845 1.00241 1.00241 900 0.05 N V 21 "SO16"
T1 -0.890431 1.00104e-06 1.0016 1.0016 0 0.05 N V 21 "VAL**"
DS 4.699 -1.9558 -4.699 -1.9558 0.1524 21
DA 4.699 1.5748 5.08 1.5748 900 0.1524 21
DA -4.699 -1.5748 -4.699 -1.9558 -900 0.1524 21
DA 4.699 -1.5748 5.08 -1.5748 -900 0.1524 21
DA -4.699 1.5748 -4.699 1.9558 900 0.1524 21
DS -4.699 1.9558 4.699 1.9558 0.1524 21
DA -5.08 0 -5.08 0.508 -1800 0.1524 21
DS -5.08 1.6002 5.08 1.6002 0.0508 21
DP 0 0 0 0 4 0 24
Dl -0.890005 -3.0988
Dl -0.381 -3.0988
Dl -0.381 -1.95801
Dl -0.890005 -1.95801
DP 0 0 0 0 4 0 24
Dl -4.70595 1.9558
Dl -4.191 1.9558
Dl -4.191 3.10339
Dl -4.70595 3.10339
DP 0 0 0 0 4 0 24
Dl -3.43899 1.9558
Dl -2.921 1.9558
Dl -2.921 3.10782
Dl -3.43899 3.10782
DP 0 0 0 0 4 0 24
Dl -2.16282 1.9304
Dl -1.651 1.9304
Dl -1.651 3.07884
Dl -2.16282 3.07884
DP 0 0 0 0 4 0 24
Dl -0.891696 1.9558
Dl -0.381 1.9558
Dl -0.381 3.1082
Dl -0.891696 3.1082
DP 0 0 0 0 4 0 24
Dl -2.16461 -3.0988
Dl -1.651 -3.0988
Dl -1.651 -1.96088
Dl -2.16461 -1.96088
DP 0 0 0 0 4 0 24
Dl -3.43473 -3.0988
Dl -2.921 -3.0988
Dl -2.921 -1.95906
Dl -3.43473 -1.95906
DP 0 0 0 0 4 0 24
Dl -4.70722 -3.0988
Dl -4.191 -3.0988
Dl -4.191 -1.95922
Dl -4.70722 -1.95922
DP 0 0 0 0 4 0 24
Dl 0.381858 1.9558
Dl 0.889 1.9558
Dl 0.889 3.10579
Dl 0.381858 3.10579
DP 0 0 0 0 4 0 24
Dl 1.65438 1.9558
Dl 2.159 1.9558
Dl 2.159 3.10514
Dl 1.65438 3.10514
DP 0 0 0 0 4 0 24
Dl 2.93007 1.9558
Dl 3.429 1.9558
Dl 3.429 3.10843
Dl 2.93007 3.10843
DP 0 0 0 0 4 0 24
Dl 4.20099 1.9558
Dl 4.699 1.9558
Dl 4.699 3.10619
Dl 4.20099 3.10619
DP 0 0 0 0 4 0 24
Dl 0.381977 -3.0988
Dl 0.889 -3.0988
Dl 0.889 -1.96081
Dl 0.381977 -1.96081
DP 0 0 0 0 4 0 24
Dl 1.65483 -3.0988
Dl 2.159 -3.0988
Dl 2.159 -1.96034
Dl 1.65483 -1.96034
DP 0 0 0 0 4 0 24
Dl 2.9255 -3.0988
Dl 3.429 -3.0988
Dl 3.429 -1.95881
Dl 2.9255 -1.95881
DP 0 0 0 0 4 0 24
Dl 4.20047 -3.0988
Dl 4.699 -3.0988
Dl 4.699 -1.96021
Dl 4.20047 -1.96021
$PAD
Sh "1" R 0.6604 2.032 0 0 0
At SMD N 00888000
.SolderMask 0
.SolderPaste 0
Ne 0 ""
Po -4.445 3.0734
$EndPAD
$PAD
Sh "16" R 0.6604 2.032 0 0 0
At SMD N 00888000
.SolderMask 0
.SolderPaste 0
Ne 0 ""
Po -4.445 -3.0734
$EndPAD
$PAD
Sh "2" R 0.6604 2.032 0 0 0
At SMD N 00888000
.SolderMask 0
.SolderPaste 0
Ne 0 ""
Po -3.175 3.0734
$EndPAD
$PAD
Sh "3" R 0.6604 2.032 0 0 0
At SMD N 00888000
.SolderMask 0
.SolderPaste 0
Ne 0 ""
Po -1.905 3.0734
$EndPAD
$PAD
Sh "15" R 0.6604 2.032 0 0 0
At SMD N 00888000
.SolderMask 0
.SolderPaste 0
Ne 0 ""
Po -3.175 -3.0734
$EndPAD
$PAD
Sh "14" R 0.6604 2.032 0 0 0
At SMD N 00888000
.SolderMask 0
.SolderPaste 0
Ne 0 ""
Po -1.905 -3.0734
$EndPAD
$PAD
Sh "4" R 0.6604 2.032 0 0 0
At SMD N 00888000
.SolderMask 0
.SolderPaste 0
Ne 0 ""
Po -0.635 3.0734
$EndPAD
$PAD
Sh "13" R 0.6604 2.032 0 0 0
At SMD N 00888000
.SolderMask 0
.SolderPaste 0
Ne 0 ""
Po -0.635 -3.0734
$EndPAD
$PAD
Sh "5" R 0.6604 2.032 0 0 0
At SMD N 00888000
.SolderMask 0
.SolderPaste 0
Ne 0 ""
Po 0.635 3.0734
$EndPAD
$PAD
Sh "12" R 0.6604 2.032 0 0 0
At SMD N 00888000
.SolderMask 0
.SolderPaste 0
Ne 0 ""
Po 0.635 -3.0734
$EndPAD
$PAD
Sh "6" R 0.6604 2.032 0 0 0
At SMD N 00888000
.SolderMask 0
.SolderPaste 0
Ne 0 ""
Po 1.905 3.0734
$EndPAD
$PAD
Sh "7" R 0.6604 2.032 0 0 0
At SMD N 00888000
.SolderMask 0
.SolderPaste 0
Ne 0 ""
Po 3.175 3.0734
$EndPAD
$PAD
Sh "11" R 0.6604 2.032 0 0 0
At SMD N 00888000
.SolderMask 0
.SolderPaste 0
Ne 0 ""
Po 1.905 -3.0734
$EndPAD
$PAD
Sh "10" R 0.6604 2.032 0 0 0
At SMD N 00888000
.SolderMask 0
.SolderPaste 0
Ne 0 ""
Po 3.175 -3.0734
$EndPAD
$PAD
Sh "8" R 0.6604 2.032 0 0 0
At SMD N 00888000
.SolderMask 0
.SolderPaste 0
Ne 0 ""
Po 4.445 3.0734
$EndPAD
$PAD
Sh "9" R 0.6604 2.032 0 0 0
At SMD N 00888000
.SolderMask 0
.SolderPaste 0
Ne 0 ""
Po 4.445 -3.0734
$EndPAD
$EndMODULE SO16
