PCBNEW-LibModule-V1  
# encoding utf-8
Units mm
$INDEX
XCVR_OMEGA2
$EndINDEX
$MODULE XCVR_OMEGA2
Po 0 0 0 15 00000000 00000000 ~~
Li XCVR_OMEGA2
Cd 
Sc 00000000
At STD
Op 0 0 0
.SolderMask 0
.SolderPaste 0
T0 -10.7165 -22.6489 1.00061 1.00061 0 0.05 N V 21 "XCVR_OMEGA2"
T1 -10.1036 22.6793 1.00285 1.00285 0 0.05 N V 21 "VAL**"
DS -13.2 -21.45 8.53 -21.45 0.127 24
DS 8.53 -21.45 13.2 -16.75 0.127 24
DS 13.2 -16.75 13.2 18.45 0.127 24
DS 13.2 18.45 10.2 21.45 0.127 24
DS 10.2 21.45 -11.5 21.45 0.127 24
DS -11.5 21.45 -13.2 19.75 0.127 24
DS -13.2 19.75 -13.2 -21.45 0.127 24
DS -13.2 -21.45 8.5 -21.45 0.127 21
DS 8.5 -21.45 13.2 -16.75 0.127 21
DS 13.2 -16.75 13.2 18.45 0.127 21
DS 13.2 18.45 10.2 21.45 0.127 21
DS 10.2 21.45 -11.5 21.45 0.127 21
DS -11.5 21.45 -13.2 19.75 0.127 21
DS -13.2 19.75 -13.2 -21.45 0.127 21
DS -13.5 -21.75 13.5 -21.75 0.05 26
DS 13.5 -21.75 13.5 21.75 0.05 26
DS 13.5 21.75 -13.5 21.75 0.05 26
DS -13.5 21.75 -13.5 -21.75 0.05 26
$PAD
Sh "1" R 1.523 1.523 0 0 0
Dr 1.015 0 0
At STD N 00C0FFFF
.SolderMask 0
Ne 0 ""
Po -12.2 -13.85
$EndPAD
$PAD
Sh "2" C 1.523 1.523 0 0 0
Dr 1.015 0 0
At STD N 00C0FFFF
.SolderMask 0
Ne 0 ""
Po -12.2 -11.85
$EndPAD
$PAD
Sh "3" C 1.523 1.523 0 0 0
Dr 1.015 0 0
At STD N 00C0FFFF
.SolderMask 0
Ne 0 ""
Po -12.2 -9.85
$EndPAD
$PAD
Sh "4" C 1.523 1.523 0 0 0
Dr 1.015 0 0
At STD N 00C0FFFF
.SolderMask 0
Ne 0 ""
Po -12.2 -7.85
$EndPAD
$PAD
Sh "5" C 1.523 1.523 0 0 0
Dr 1.015 0 0
At STD N 00C0FFFF
.SolderMask 0
Ne 0 ""
Po -12.2 -5.85
$EndPAD
$PAD
Sh "6" C 1.523 1.523 0 0 0
Dr 1.015 0 0
At STD N 00C0FFFF
.SolderMask 0
Ne 0 ""
Po -12.2 -3.85
$EndPAD
$PAD
Sh "7" C 1.523 1.523 0 0 0
Dr 1.015 0 0
At STD N 00C0FFFF
.SolderMask 0
Ne 0 ""
Po -12.2 -1.85
$EndPAD
$PAD
Sh "8" C 1.523 1.523 0 0 0
Dr 1.015 0 0
At STD N 00C0FFFF
.SolderMask 0
Ne 0 ""
Po -12.2 0.15
$EndPAD
$PAD
Sh "9" C 1.523 1.523 0 0 0
Dr 1.015 0 0
At STD N 00C0FFFF
.SolderMask 0
Ne 0 ""
Po -12.2 2.15
$EndPAD
$PAD
Sh "10" C 1.523 1.523 0 0 0
Dr 1.015 0 0
At STD N 00C0FFFF
.SolderMask 0
Ne 0 ""
Po -12.2 4.15
$EndPAD
$PAD
Sh "11" C 1.523 1.523 0 0 0
Dr 1.015 0 0
At STD N 00C0FFFF
.SolderMask 0
Ne 0 ""
Po -12.2 6.15
$EndPAD
$PAD
Sh "12" C 1.523 1.523 0 0 0
Dr 1.015 0 0
At STD N 00C0FFFF
.SolderMask 0
Ne 0 ""
Po -12.2 8.15
$EndPAD
$PAD
Sh "13" C 1.523 1.523 0 0 0
Dr 1.015 0 0
At STD N 00C0FFFF
.SolderMask 0
Ne 0 ""
Po -12.2 10.15
$EndPAD
$PAD
Sh "14" C 1.523 1.523 0 0 0
Dr 1.015 0 0
At STD N 00C0FFFF
.SolderMask 0
Ne 0 ""
Po -12.2 12.15
$EndPAD
$PAD
Sh "15" C 1.523 1.523 0 0 0
Dr 1.015 0 0
At STD N 00C0FFFF
.SolderMask 0
Ne 0 ""
Po -12.2 14.15
$EndPAD
$PAD
Sh "16" C 1.523 1.523 0 0 0
Dr 1.015 0 0
At STD N 00C0FFFF
.SolderMask 0
Ne 0 ""
Po -12.2 16.15
$EndPAD
$PAD
Sh "17" C 1.523 1.523 0 0 0
Dr 1.015 0 0
At STD N 00C0FFFF
.SolderMask 0
Ne 0 ""
Po 12.2 16.15
$EndPAD
$PAD
Sh "18" C 1.523 1.523 0 0 0
Dr 1.015 0 0
At STD N 00C0FFFF
.SolderMask 0
Ne 0 ""
Po 12.2 14.15
$EndPAD
$PAD
Sh "19" C 1.523 1.523 0 0 0
Dr 1.015 0 0
At STD N 00C0FFFF
.SolderMask 0
Ne 0 ""
Po 12.2 12.15
$EndPAD
$PAD
Sh "20" C 1.523 1.523 0 0 0
Dr 1.015 0 0
At STD N 00C0FFFF
.SolderMask 0
Ne 0 ""
Po 12.2 10.15
$EndPAD
$PAD
Sh "21" C 1.523 1.523 0 0 0
Dr 1.015 0 0
At STD N 00C0FFFF
.SolderMask 0
Ne 0 ""
Po 12.2 8.15
$EndPAD
$PAD
Sh "22" C 1.523 1.523 0 0 0
Dr 1.015 0 0
At STD N 00C0FFFF
.SolderMask 0
Ne 0 ""
Po 12.2 6.15
$EndPAD
$PAD
Sh "23" C 1.523 1.523 0 0 0
Dr 1.015 0 0
At STD N 00C0FFFF
.SolderMask 0
Ne 0 ""
Po 12.2 4.15
$EndPAD
$PAD
Sh "24" C 1.523 1.523 0 0 0
Dr 1.015 0 0
At STD N 00C0FFFF
.SolderMask 0
Ne 0 ""
Po 12.2 2.15
$EndPAD
$PAD
Sh "25" C 1.523 1.523 0 0 0
Dr 1.015 0 0
At STD N 00C0FFFF
.SolderMask 0
Ne 0 ""
Po 12.2 0.15
$EndPAD
$PAD
Sh "26" C 1.523 1.523 0 0 0
Dr 1.015 0 0
At STD N 00C0FFFF
.SolderMask 0
Ne 0 ""
Po 12.2 -1.85
$EndPAD
$PAD
Sh "27" C 1.523 1.523 0 0 0
Dr 1.015 0 0
At STD N 00C0FFFF
.SolderMask 0
Ne 0 ""
Po 12.2 -3.85
$EndPAD
$PAD
Sh "28" C 1.523 1.523 0 0 0
Dr 1.015 0 0
At STD N 00C0FFFF
.SolderMask 0
Ne 0 ""
Po 12.2 -5.85
$EndPAD
$PAD
Sh "29" C 1.523 1.523 0 0 0
Dr 1.015 0 0
At STD N 00C0FFFF
.SolderMask 0
Ne 0 ""
Po 12.2 -7.85
$EndPAD
$PAD
Sh "30" C 1.523 1.523 0 0 0
Dr 1.015 0 0
At STD N 00C0FFFF
.SolderMask 0
Ne 0 ""
Po 12.2 -9.85
$EndPAD
$PAD
Sh "31" C 1.523 1.523 0 0 0
Dr 1.015 0 0
At STD N 00C0FFFF
.SolderMask 0
Ne 0 ""
Po 12.2 -11.85
$EndPAD
$PAD
Sh "32" C 1.523 1.523 0 0 0
Dr 1.015 0 0
At STD N 00C0FFFF
.SolderMask 0
Ne 0 ""
Po 12.2 -13.85
$EndPAD
$PAD
Sh "Hole" C 2.25 2.25 0 0 0
Dr 2.25 0 0
At HOLE N 00E0FFFF
Po 10 18.45
$EndPAD
$PAD
Sh "Hole" C 2.25 2.25 0 0 0
Dr 2.25 0 0
At HOLE N 00E0FFFF
Po -10 18.55
$EndPAD
$EndMODULE XCVR_OMEGA2
