(module SRF2012-900YA (layer F.Cu) (tedit 5BC58063)
  (fp_text reference REF** (at 0 -2.54) (layer F.SilkS)
    (effects (font (size 1 1) (thickness 0.15)))
  )
  (fp_text value IND_BOURNS_SRF2012A (at 0 2.54) (layer F.SilkS)
    (effects (font (size 1 1) (thickness 0.15)))
  )
  (fp_circle (center -1.8796 -0.7747) (end -1.8034 -0.7747) (layer F.SilkS) (width 0.1524))
  (fp_line (start -0.9525 1.3589) (end -1.2573 1.3589) (layer F.CrtYd) (width 0.1524))
  (fp_line (start -0.9525 1.3589) (end -0.9525 1.3589) (layer F.CrtYd) (width 0.1524))
  (fp_line (start 0.9525 1.3589) (end -0.9525 1.3589) (layer F.CrtYd) (width 0.1524))
  (fp_line (start 0.9525 1.3589) (end 0.9525 1.3589) (layer F.CrtYd) (width 0.1524))
  (fp_line (start 1.2573 1.3589) (end 0.9525 1.3589) (layer F.CrtYd) (width 0.1524))
  (fp_line (start 1.2573 -1.3589) (end 1.2573 1.3589) (layer F.CrtYd) (width 0.1524))
  (fp_line (start 0.9525 -1.3589) (end 1.2573 -1.3589) (layer F.CrtYd) (width 0.1524))
  (fp_line (start 0.9525 -1.3589) (end 0.9525 -1.3589) (layer F.CrtYd) (width 0.1524))
  (fp_line (start -0.9525 -1.3589) (end 0.9525 -1.3589) (layer F.CrtYd) (width 0.1524))
  (fp_line (start -0.9525 -1.3589) (end -0.9525 -1.3589) (layer F.CrtYd) (width 0.1524))
  (fp_line (start -1.2573 -1.3589) (end -0.9525 -1.3589) (layer F.CrtYd) (width 0.1524))
  (fp_line (start -1.2573 1.3589) (end -1.2573 -1.3589) (layer F.CrtYd) (width 0.1524))
  (fp_line (start -0.6985 -1.1049) (end -0.6985 1.1049) (layer F.Fab) (width 0.1524))
  (fp_line (start 0.6985 -1.1049) (end -0.6985 -1.1049) (layer F.Fab) (width 0.1524))
  (fp_line (start 0.6985 1.1049) (end 0.6985 -1.1049) (layer F.Fab) (width 0.1524))
  (fp_line (start -0.6985 1.1049) (end 0.6985 1.1049) (layer F.Fab) (width 0.1524))
  (fp_line (start -0.8255 -0.11176) (end -0.8255 0.11176) (layer F.SilkS) (width 0.1524))
  (fp_line (start 0.8255 0.11176) (end 0.8255 -0.11176) (layer F.SilkS) (width 0.1524))
  (fp_text user * (at 0 0) (layer F.Fab)
    (effects (font (size 1 1) (thickness 0.15)))
  )
  (fp_text user * (at 0 0) (layer F.SilkS)
    (effects (font (size 1 1) (thickness 0.15)))
  )
  (fp_text user "Copyright 2016 Accelerated Designs. All rights reserved." (at 0 0) (layer Cmts.User)
    (effects (font (size 0.127 0.127) (thickness 0.002)))
  )
  (pad 4 smd rect (at 0.5715 -0.7747) (size 0.8636 0.6604) (layers F.Cu F.Paste F.Mask))
  (pad 3 smd rect (at 0.5715 0.7747) (size 0.8636 0.6604) (layers F.Cu F.Paste F.Mask))
  (pad 2 smd rect (at -0.5715 0.7747) (size 0.8636 0.6604) (layers F.Cu F.Paste F.Mask))
  (pad 1 smd rect (at -0.5715 -0.7747) (size 0.8636 0.6604) (layers F.Cu F.Paste F.Mask))
)
