%TF.GenerationSoftware,KiCad,Pcbnew,6.0.0-rc1-unknown-60a55d7~66~ubuntu16.04.1*%
%TF.CreationDate,2018-11-08T00:24:11-05:00*%
%TF.ProjectId,schematicProject,736368656D6174696350726F6A656374,rev?*%
%TF.SameCoordinates,Original*%
%TF.FileFunction,Profile,NP*%
%FSLAX46Y46*%
G04 Gerber Fmt 4.6, Leading zero omitted, Abs format (unit mm)*
G04 Created by KiCad (PCBNEW 6.0.0-rc1-unknown-60a55d7~66~ubuntu16.04.1) date Thu Nov  8 00:24:11 2018*
%MOMM*%
%LPD*%
G01*
G04 APERTURE LIST*
%ADD10C,0.120000*%
G04 APERTURE END LIST*
D10*
X178638200Y-122097800D02*
X178638200Y-39700200D01*
X178638200Y-122199400D02*
X278028400Y-122199400D01*
X278003000Y-122199400D02*
X278003000Y-39700200D01*
X178638200Y-39700200D02*
X278003000Y-39700200D01*
M02*
