EESchema Schematic File Version 4
LIBS:schematicProject-cache
EELAYER 26 0
EELAYER END
$Descr A3 16535 11693
encoding utf-8
Sheet 4 5
Title "Proyecto Embebidos - Ana Moreno"
Date ""
Rev ""
Comp "Universidad Nacional de Colombia-Sede Bogotá"
Comment1 ""
Comment2 ""
Comment3 ""
Comment4 ""
$EndDescr
Entry Wire Line
	3300 4350 3400 4450
Entry Wire Line
	3300 4450 3400 4550
Entry Wire Line
	3300 4550 3400 4650
Entry Wire Line
	3300 4050 3400 4150
Entry Wire Line
	3300 4150 3400 4250
Entry Wire Line
	3300 4250 3400 4350
Entry Wire Line
	3300 3750 3400 3850
Entry Wire Line
	3300 3850 3400 3950
Entry Wire Line
	3300 3950 3400 4050
Entry Wire Line
	3300 4950 3400 5050
Entry Wire Line
	3300 5050 3400 5150
Entry Wire Line
	3300 5150 3400 5250
Entry Wire Line
	3300 4650 3400 4750
Entry Wire Line
	3300 4750 3400 4850
Entry Wire Line
	3300 4850 3400 4950
Wire Bus Line
	3150 3600 3300 3600
Wire Wire Line
	3400 3850 3750 3850
Wire Wire Line
	3400 3950 3750 3950
Wire Wire Line
	3400 4050 3750 4050
Wire Wire Line
	3400 4150 3750 4150
Wire Wire Line
	3400 4250 3750 4250
Wire Wire Line
	3400 4350 3750 4350
Wire Wire Line
	3400 4450 3750 4450
Wire Wire Line
	3400 4550 3750 4550
Wire Wire Line
	3400 4650 3750 4650
Wire Wire Line
	3400 4750 3750 4750
Wire Wire Line
	3400 4850 3750 4850
Wire Wire Line
	3400 4950 3750 4950
Wire Wire Line
	3400 5050 3750 5050
Wire Wire Line
	3400 5150 3750 5150
Wire Wire Line
	3400 5250 3750 5250
Entry Wire Line
	2450 4750 2550 4850
Entry Wire Line
	2450 4850 2550 4950
Entry Wire Line
	2450 4950 2550 5050
Entry Wire Line
	2450 4450 2550 4550
Entry Wire Line
	2450 4550 2550 4650
Entry Wire Line
	2450 4650 2550 4750
Entry Wire Line
	2450 4150 2550 4250
Entry Wire Line
	2450 4250 2550 4350
Entry Wire Line
	2450 4350 2550 4450
Wire Bus Line
	2300 4000 2450 4000
Wire Wire Line
	2550 4250 2900 4250
Wire Wire Line
	2550 4350 2900 4350
Wire Wire Line
	2550 4450 2900 4450
Wire Wire Line
	2550 4550 2900 4550
Wire Wire Line
	2550 4650 2900 4650
Wire Wire Line
	2550 4750 2900 4750
Wire Wire Line
	2550 4950 2900 4950
Wire Wire Line
	2550 5050 2900 5050
Text Label 3750 3850 2    50   ~ 0
FMC_D0
Text Label 3750 3950 2    50   ~ 0
FMC_D1
Text Label 3750 4050 2    50   ~ 0
FMC_D2
Text Label 3750 4150 2    50   ~ 0
FMC_D3
Text Label 3750 4250 2    50   ~ 0
FMC_D4
Text Label 3750 4350 2    50   ~ 0
FMC_D5
Text Label 3750 4450 2    50   ~ 0
FMC_D6
Text Label 3750 4550 2    50   ~ 0
FMC_D7
Text Label 3750 4650 2    50   ~ 0
FMC_D8
Text Label 3750 4750 2    50   ~ 0
FMC_D9
Text Label 3750 4850 2    50   ~ 0
FMC_D10
Text Label 3750 4950 2    50   ~ 0
FMC_D11
Text Label 3750 5050 2    50   ~ 0
FMC_D12
Text Label 3750 5150 2    50   ~ 0
FMC_D13
Text Label 3750 5250 2    50   ~ 0
FMC_D14
Entry Wire Line
	3300 5250 3400 5350
Wire Wire Line
	3400 5350 3750 5350
Text Label 3750 5350 2    50   ~ 0
FMC_D15
Text Label 2900 4250 2    50   ~ 0
FMC_A16
Text Label 2900 4350 2    50   ~ 0
FMC_A17
Text Label 2900 4450 2    50   ~ 0
FMC_A18
Text Label 2900 4550 2    50   ~ 0
FMC_A19
Text Label 2900 4650 2    50   ~ 0
FMC_A20
Text Label 2900 4750 2    50   ~ 0
FMC_A21
Text Label 2900 4850 2    50   ~ 0
FMC_A22
Text Label 2900 4950 2    50   ~ 0
FMC_A23
Text Label 2900 5050 2    50   ~ 0
FMC_A24
Text HLabel 3150 3600 0    50   BiDi ~ 0
FMC_D[15..0]
Text HLabel 2300 4000 0    50   Input ~ 0
FMC_A[24..16]
$Comp
L schematicProject-rescue:LED-device D?
U 1 1 5BCD4A05
P 2800 2850
AR Path="/5B95942F/5BCD4A05" Ref="D?"  Part="1" 
AR Path="/5BB736EF/5BCD4A05" Ref="D3"  Part="1" 
F 0 "D3" H 2792 2595 50  0000 C CNN
F 1 "LED" H 2792 2686 50  0000 C CNN
F 2 "LED_SMD:LED_0603_1608Metric" H 2800 2850 50  0001 C CNN
F 3 "~" H 2800 2850 50  0001 C CNN
	1    2800 2850
	-1   0    0    1   
$EndComp
$Comp
L schematicProject-rescue:R-device R?
U 1 1 5BCD4A0C
P 3150 2850
AR Path="/5B95942F/5BCD4A0C" Ref="R?"  Part="1" 
AR Path="/5BB736EF/5BCD4A0C" Ref="R4"  Part="1" 
F 0 "R4" V 2943 2850 50  0000 C CNN
F 1 "1k" V 3034 2850 50  0000 C CNN
F 2 "Resistor_SMD:R_0603_1608Metric_Pad1.05x0.95mm_HandSolder" V 3080 2850 50  0001 C CNN
F 3 "" H 3150 2850 50  0001 C CNN
	1    3150 2850
	0    1    1    0   
$EndComp
$Comp
L schematicProject-rescue:GND-omega-dock-new-cache #PWR?
U 1 1 5BCD4A13
P 3400 2850
AR Path="/5B95942F/5BCD4A13" Ref="#PWR?"  Part="1" 
AR Path="/5BB736EF/5BCD4A13" Ref="#PWR018"  Part="1" 
F 0 "#PWR018" H 3400 2600 50  0001 C CNN
F 1 "GND" V 3405 2722 50  0000 R CNN
F 2 "" H 3400 2850 50  0001 C CNN
F 3 "" H 3400 2850 50  0001 C CNN
	1    3400 2850
	0    -1   -1   0   
$EndComp
Wire Wire Line
	2950 2850 3000 2850
Wire Wire Line
	3300 2850 3400 2850
Text Label 2350 2850 0    50   ~ 0
LED_FMC
Wire Wire Line
	2350 2850 2650 2850
Wire Wire Line
	5200 6300 5550 6300
Wire Wire Line
	5200 6400 5550 6400
Wire Wire Line
	7700 4900 7350 4900
Wire Wire Line
	10500 6400 10150 6400
Wire Wire Line
	10500 6300 10150 6300
Wire Wire Line
	5200 6200 5550 6200
Wire Wire Line
	5200 6100 5550 6100
Text Label 7700 4700 2    50   ~ 0
FMC_A20
Text Label 10100 4100 2    50   ~ 0
FMC_D0
Text Label 10100 4200 2    50   ~ 0
FMC_D1
Text Label 10500 6400 2    50   ~ 0
FMC_D2
Text Label 10500 6300 2    50   ~ 0
FMC_D3
Text Label 5200 6400 0    50   ~ 0
FMC_D4
Text Label 5200 6300 0    50   ~ 0
FMC_D5
Text Label 5200 6200 0    50   ~ 0
FMC_D6
Text Label 5200 6100 0    50   ~ 0
FMC_D7
$Comp
L ICE40HX1K-TQ144:ICE40HX1K-TQ144 U?
U 1 1 5BB49B57
P 7750 4300
AR Path="/5B95942F/5BB49B57" Ref="U?"  Part="1" 
AR Path="/5BB736EF/5BB49B57" Ref="U4"  Part="1" 
F 0 "U4" H 7850 6788 50  0000 C CNN
F 1 "ICE40HX1K-TQ144" H 7850 6697 50  0000 C CNN
F 2 "ICE40HX1K-TQ144:QFP50P2200X2200X160-144N" H 7750 4300 50  0001 L BNN
F 3 "None" H 7750 4300 50  0001 L BNN
F 4 "Lattice Semiconductor" H 7750 4300 50  0001 L BNN "Field4"
F 5 "TQFP-144 Lattice Semiconductor" H 7750 4300 50  0001 L BNN "Field5"
F 6 "Unavailable" H 7750 4300 50  0001 L BNN "Field6"
F 7 "HX Series 1280 LUTs 95 I/O 64 kBit RAM 1.2 V Surface Mount FPGA - TQFP-144" H 7750 4300 50  0001 L BNN "Field7"
F 8 "ICE40HX1K-TQ144" H 7750 4300 50  0001 L BNN "Field8"
	1    7750 4300
	1    0    0    -1  
$EndComp
Wire Wire Line
	5200 6000 5550 6000
Text Label 5200 6000 0    50   ~ 0
FMC_D8
Text Label 5200 5900 0    50   ~ 0
FMC_D9
Wire Wire Line
	7700 4000 7350 4000
Wire Wire Line
	7700 4400 7350 4400
Wire Wire Line
	7700 4300 7350 4300
Wire Wire Line
	7700 4200 7350 4200
Wire Wire Line
	7700 4100 7350 4100
Text Label 10100 4500 2    50   ~ 0
FMC_D15
Text Label 10100 4600 2    50   ~ 0
FMC_D14
Text Label 10100 4700 2    50   ~ 0
FMC_D13
Text Label 7550 6700 2    50   ~ 0
FMC_D11
Text Label 5200 5800 0    50   ~ 0
FMC_D10
Wire Wire Line
	7700 4800 7350 4800
Text Label 7700 4800 2    50   ~ 0
FMC_A19
Wire Wire Line
	7700 4700 7350 4700
Wire Wire Line
	7700 4600 7350 4600
Wire Wire Line
	7700 4500 7350 4500
Text Label 10100 4300 2    50   ~ 0
FMC_A18
Text Label 10100 4400 2    50   ~ 0
FMC_A17
Text Label 7800 4300 0    50   ~ 0
FMC_A16
$Comp
L schematicProject-rescue:GND-power #PWR?
U 1 1 5BB8B348
P 13300 2500
AR Path="/5B7D7B54/5BB8B348" Ref="#PWR?"  Part="1" 
AR Path="/5BB736EF/5BB8B348" Ref="#PWR030"  Part="1" 
F 0 "#PWR030" H 13300 2250 50  0001 C CNN
F 1 "GND" H 13305 2327 50  0000 C CNN
F 2 "" H 13300 2500 50  0001 C CNN
F 3 "" H 13300 2500 50  0001 C CNN
	1    13300 2500
	0    -1   -1   0   
$EndComp
$Comp
L schematicProject-rescue:C-device C?
U 1 1 5BB8B34E
P 13100 2200
AR Path="/5B7D7B54/5BB8B34E" Ref="C?"  Part="1" 
AR Path="/5BB736EF/5BB8B34E" Ref="C45"  Part="1" 
F 0 "C45" H 12950 2100 50  0000 C CNN
F 1 "22pF" H 12900 2200 50  0000 C CNN
F 2 "kicad-footprints:C_0603_1608Metric_Pad1.05x0.95mm_HandSolder" H 13138 2050 50  0001 C CNN
F 3 "" H 13100 2200 50  0001 C CNN
	1    13100 2200
	0    1    1    0   
$EndComp
$Comp
L schematicProject-rescue:C-device C?
U 1 1 5BB8B355
P 13100 2800
AR Path="/5B7D7B54/5BB8B355" Ref="C?"  Part="1" 
AR Path="/5BB736EF/5BB8B355" Ref="C46"  Part="1" 
F 0 "C46" H 12900 2900 50  0000 C CNN
F 1 "22pF" H 12900 2800 50  0000 C CNN
F 2 "kicad-footprints:C_0603_1608Metric_Pad1.05x0.95mm_HandSolder" H 13138 2650 50  0001 C CNN
F 3 "" H 13100 2800 50  0001 C CNN
	1    13100 2800
	0    -1   -1   0   
$EndComp
Connection ~ 13300 2500
$Comp
L schematicProject-rescue:ABM8G-chip_media-cache-2018-09-26-20-57-17 X?
U 1 1 5BB8B35F
P 12600 2500
AR Path="/5B7D7B54/5BB8B35F" Ref="X?"  Part="1" 
AR Path="/5BB736EF/5BB8B35F" Ref="X3"  Part="1" 
F 0 "X3" H 12550 2650 60  0000 L CNN
F 1 "12MHz" H 12450 2350 60  0000 L CNN
F 2 "kicad-footprints:Crystal_SMD_Abracon_ABM8G-4Pin_3.2x2.5mm" H 12600 2500 60  0001 C CNN
F 3 "" H 12600 2500 60  0001 C CNN
	1    12600 2500
	0    -1   -1   0   
$EndComp
Wire Wire Line
	12050 2200 12600 2200
Wire Wire Line
	12050 2200 12050 2400
Wire Wire Line
	12050 2800 12600 2800
Wire Wire Line
	12050 2600 12050 2800
Wire Wire Line
	12600 2200 12950 2200
Connection ~ 12600 2200
Wire Wire Line
	12600 2800 12950 2800
Connection ~ 12600 2800
Wire Wire Line
	13000 2450 13000 2500
Wire Wire Line
	13000 2500 13300 2500
Connection ~ 13000 2500
Wire Wire Line
	13000 2500 13000 2550
Wire Wire Line
	13250 2200 13300 2200
Wire Wire Line
	13300 2200 13300 2500
Wire Wire Line
	13300 2800 13250 2800
Wire Wire Line
	13300 2500 13300 2800
$Comp
L chip_media-cache-2018-09-25-05-03-38:C C42
U 1 1 5BB8F12C
P 8850 1650
F 0 "C42" H 9050 1750 50  0000 C CNN
F 1 "100nF" H 9050 1650 50  0000 C CNN
F 2 "kicad-footprints:C_0603_1608Metric_Pad1.05x0.95mm_HandSolder" H 8888 1500 50  0001 C CNN
F 3 "" H 8850 1650 50  0001 C CNN
	1    8850 1650
	0    -1   -1   0   
$EndComp
$Comp
L chip_media-cache-2018-09-25-05-03-38:C C41
U 1 1 5BB8F15A
P 8850 1250
F 0 "C41" H 9000 1350 50  0000 C CNN
F 1 "10uF" H 9011 1250 50  0000 C CNN
F 2 "kicad-footprints:C_0603_1608Metric_Pad1.05x0.95mm_HandSolder" H 8888 1100 50  0001 C CNN
F 3 "" H 8850 1250 50  0001 C CNN
	1    8850 1250
	0    -1   -1   0   
$EndComp
Wire Wire Line
	9550 2200 9750 2200
Wire Wire Line
	9750 2200 9750 1250
Wire Wire Line
	9750 1250 9250 1250
Wire Wire Line
	9000 1650 9250 1650
Wire Wire Line
	9250 1650 9250 1250
Connection ~ 9250 1250
Wire Wire Line
	9250 1250 9000 1250
Wire Wire Line
	8700 1650 8450 1650
Wire Wire Line
	8450 1650 8450 1250
Connection ~ 8450 1250
Wire Wire Line
	8450 1250 8700 1250
Wire Wire Line
	8150 2200 7950 2200
Wire Wire Line
	7950 2200 7950 1250
Wire Wire Line
	7950 1250 8450 1250
$Comp
L chip_media-cache-2018-09-25-05-03-38:R R14
U 1 1 5BBA0AD1
P 7600 1250
F 0 "R14" V 7393 1250 50  0000 C CNN
F 1 "100" V 7484 1250 50  0000 C CNN
F 2 "Resistor_SMD:R_0603_1608Metric_Pad1.05x0.95mm_HandSolder" V 7530 1250 50  0001 C CNN
F 3 "" H 7600 1250 50  0001 C CNN
	1    7600 1250
	0    1    1    0   
$EndComp
Wire Wire Line
	7950 1250 7750 1250
Connection ~ 7950 1250
Wire Wire Line
	7350 3700 7500 3700
Wire Wire Line
	7500 3700 7500 3800
Wire Wire Line
	7500 3800 7350 3800
Wire Wire Line
	7150 5400 7300 5400
Wire Wire Line
	7300 5400 7300 5500
Wire Wire Line
	7300 5500 7150 5500
Wire Wire Line
	7400 5400 7300 5400
Connection ~ 7300 5400
Wire Wire Line
	10300 5400 10300 5500
Wire Wire Line
	10300 5500 10150 5500
Wire Wire Line
	9750 3700 9900 3700
Wire Wire Line
	9900 3700 9900 3800
Wire Wire Line
	9900 3800 9750 3800
Wire Wire Line
	10000 3700 9900 3700
Connection ~ 9900 3700
Wire Wire Line
	9550 2400 9750 2400
Wire Wire Line
	9750 2400 9750 2500
Wire Wire Line
	9750 3200 9550 3200
Wire Wire Line
	9550 3100 9750 3100
Connection ~ 9750 3100
Wire Wire Line
	9750 3100 9750 3200
Wire Wire Line
	9550 3000 9750 3000
Connection ~ 9750 3000
Wire Wire Line
	9750 3000 9750 3100
Wire Wire Line
	9550 2900 9750 2900
Connection ~ 9750 2900
Wire Wire Line
	9750 2900 9750 3000
Wire Wire Line
	9550 2800 9750 2800
Connection ~ 9750 2800
Wire Wire Line
	9750 2800 9750 2900
Wire Wire Line
	9550 2700 9750 2700
Connection ~ 9750 2700
Wire Wire Line
	9750 2700 9750 2800
Wire Wire Line
	9550 2600 9750 2600
Connection ~ 9750 2600
Wire Wire Line
	9750 2600 9750 2700
Wire Wire Line
	9550 2500 9750 2500
Connection ~ 9750 2500
Wire Wire Line
	9750 2500 9750 2600
$Comp
L chip_media-cache-2018-09-25-05-03-38:GND #PWR027
U 1 1 5BBDF3DB
P 9950 2800
F 0 "#PWR027" H 9950 2550 50  0001 C CNN
F 1 "GND" H 9955 2627 50  0000 C CNN
F 2 "" H 9950 2800 50  0000 C CNN
F 3 "" H 9950 2800 50  0000 C CNN
	1    9950 2800
	1    0    0    -1  
$EndComp
Wire Wire Line
	9750 2800 9950 2800
NoConn ~ 8150 2400
Text GLabel 8000 2500 0    50   Output ~ 0
2V5
Wire Wire Line
	8000 2500 8150 2500
Text GLabel 3300 1450 0    50   Output ~ 0
Vcc_FPGA
Text GLabel 8000 2800 0    50   Output ~ 0
Vcc_CoreFPGA
Wire Wire Line
	8000 2800 8050 2800
Text GLabel 7150 2900 2    50   Output ~ 0
Vcc_FPGA
Text HLabel 5550 2900 0    50   BiDi ~ 0
ICE_SCK
Text HLabel 5550 3000 0    50   BiDi ~ 0
ICE_MOSI
Text HLabel 5550 3100 0    50   BiDi ~ 0
ICE_MISO
Text HLabel 5550 3200 0    50   BiDi ~ 0
ICE_CS
$Comp
L pspice:DIODE D7
U 1 1 5BB6C6DF
P 3500 1950
F 0 "D7" H 3500 2215 50  0000 C CNN
F 1 "DIODE" H 3500 2124 50  0000 C CNN
F 2 "Diode_SMD:D_0201_0603Metric" H 3500 1950 50  0001 C CNN
F 3 "" H 3500 1950 50  0001 C CNN
	1    3500 1950
	1    0    0    -1  
$EndComp
Text GLabel 3150 1950 0    50   Output ~ 0
Vcc_FPGA
Text GLabel 3850 1950 2    50   Output ~ 0
2V5
Wire Wire Line
	3150 1950 3300 1950
Wire Wire Line
	3700 1950 3850 1950
$Comp
L chip_media-cache-2018-09-25-05-03-38:C C7
U 1 1 5BB8798C
P 3050 7650
F 0 "C7" H 3165 7696 50  0000 L CNN
F 1 "0.1uF" H 3165 7605 50  0000 L CNN
F 2 "kicad-footprints:C_0603_1608Metric_Pad1.05x0.95mm_HandSolder" H 3088 7500 50  0001 C CNN
F 3 "" H 3050 7650 50  0001 C CNN
	1    3050 7650
	1    0    0    -1  
$EndComp
$Comp
L chip_media-cache-2018-09-25-05-03-38:C C8
U 1 1 5BB87993
P 3500 7650
F 0 "C8" H 3615 7696 50  0000 L CNN
F 1 "0.1uF" H 3615 7605 50  0000 L CNN
F 2 "kicad-footprints:C_0603_1608Metric_Pad1.05x0.95mm_HandSolder" H 3538 7500 50  0001 C CNN
F 3 "" H 3500 7650 50  0001 C CNN
	1    3500 7650
	1    0    0    -1  
$EndComp
$Comp
L chip_media-cache-2018-09-25-05-03-38:C C31
U 1 1 5BB8799A
P 3950 7650
F 0 "C31" H 4065 7696 50  0000 L CNN
F 1 "0.1uF" H 4065 7605 50  0000 L CNN
F 2 "kicad-footprints:C_0603_1608Metric_Pad1.05x0.95mm_HandSolder" H 3988 7500 50  0001 C CNN
F 3 "" H 3950 7650 50  0001 C CNN
	1    3950 7650
	1    0    0    -1  
$EndComp
$Comp
L chip_media-cache-2018-09-25-05-03-38:C C32
U 1 1 5BB974B6
P 4450 7650
F 0 "C32" H 4565 7696 50  0000 L CNN
F 1 "0.1uF" H 4565 7605 50  0000 L CNN
F 2 "kicad-footprints:C_0603_1608Metric_Pad1.05x0.95mm_HandSolder" H 4488 7500 50  0001 C CNN
F 3 "" H 4450 7650 50  0001 C CNN
	1    4450 7650
	1    0    0    -1  
$EndComp
$Comp
L chip_media-cache-2018-09-25-05-03-38:C C33
U 1 1 5BB974BD
P 4900 7650
F 0 "C33" H 5015 7696 50  0000 L CNN
F 1 "0.1uF" H 5015 7605 50  0000 L CNN
F 2 "kicad-footprints:C_0603_1608Metric_Pad1.05x0.95mm_HandSolder" H 4938 7500 50  0001 C CNN
F 3 "" H 4900 7650 50  0001 C CNN
	1    4900 7650
	1    0    0    -1  
$EndComp
$Comp
L chip_media-cache-2018-09-25-05-03-38:C C34
U 1 1 5BB974C4
P 5350 7650
F 0 "C34" H 5465 7696 50  0000 L CNN
F 1 "0.1uF" H 5465 7605 50  0000 L CNN
F 2 "kicad-footprints:C_0603_1608Metric_Pad1.05x0.95mm_HandSolder" H 5388 7500 50  0001 C CNN
F 3 "" H 5350 7650 50  0001 C CNN
	1    5350 7650
	1    0    0    -1  
$EndComp
$Comp
L chip_media-cache-2018-09-25-05-03-38:C C35
U 1 1 5BB9C77D
P 5800 7650
F 0 "C35" H 5915 7696 50  0000 L CNN
F 1 "0.1uF" H 5915 7605 50  0000 L CNN
F 2 "kicad-footprints:C_0603_1608Metric_Pad1.05x0.95mm_HandSolder" H 5838 7500 50  0001 C CNN
F 3 "" H 5800 7650 50  0001 C CNN
	1    5800 7650
	1    0    0    -1  
$EndComp
$Comp
L chip_media-cache-2018-09-25-05-03-38:C C36
U 1 1 5BB9C784
P 6250 7650
F 0 "C36" H 6365 7696 50  0000 L CNN
F 1 "0.1uF" H 6365 7605 50  0000 L CNN
F 2 "kicad-footprints:C_0603_1608Metric_Pad1.05x0.95mm_HandSolder" H 6288 7500 50  0001 C CNN
F 3 "" H 6250 7650 50  0001 C CNN
	1    6250 7650
	1    0    0    -1  
$EndComp
$Comp
L chip_media-cache-2018-09-25-05-03-38:C C37
U 1 1 5BB9C78B
P 6700 7650
F 0 "C37" H 6815 7696 50  0000 L CNN
F 1 "0.1uF" H 6815 7605 50  0000 L CNN
F 2 "kicad-footprints:C_0603_1608Metric_Pad1.05x0.95mm_HandSolder" H 6738 7500 50  0001 C CNN
F 3 "" H 6700 7650 50  0001 C CNN
	1    6700 7650
	1    0    0    -1  
$EndComp
Wire Wire Line
	3050 7500 3500 7500
Connection ~ 5800 7500
Connection ~ 3500 7500
Wire Wire Line
	3500 7500 3950 7500
Connection ~ 3950 7500
Wire Wire Line
	3950 7500 4450 7500
Wire Wire Line
	4900 7500 5350 7500
Connection ~ 5350 7500
Wire Wire Line
	5350 7500 5800 7500
Wire Wire Line
	6700 7500 6250 7500
Connection ~ 6250 7500
Wire Wire Line
	6250 7500 5800 7500
Wire Wire Line
	3050 7800 3500 7800
Connection ~ 3500 7800
Wire Wire Line
	3500 7800 3950 7800
Connection ~ 3950 7800
Wire Wire Line
	3950 7800 4450 7800
Connection ~ 4450 7800
Wire Wire Line
	4450 7800 4650 7800
Connection ~ 4900 7800
Wire Wire Line
	4900 7800 5350 7800
Connection ~ 5350 7800
Wire Wire Line
	5350 7800 5800 7800
Connection ~ 5800 7800
Wire Wire Line
	5800 7800 6250 7800
Connection ~ 6250 7800
Wire Wire Line
	6250 7800 6700 7800
$Comp
L chip_media-cache-2018-09-25-05-03-38:GND #PWR021
U 1 1 5BBB3956
P 4650 7800
F 0 "#PWR021" H 4650 7550 50  0001 C CNN
F 1 "GND" H 4655 7627 50  0000 C CNN
F 2 "" H 4650 7800 50  0000 C CNN
F 3 "" H 4650 7800 50  0000 C CNN
	1    4650 7800
	1    0    0    -1  
$EndComp
Connection ~ 4650 7800
Wire Wire Line
	4650 7800 4900 7800
$Comp
L chip_media-cache-2018-09-25-05-03-38:C C38
U 1 1 5BBE0893
P 7700 7650
F 0 "C38" H 7815 7696 50  0000 L CNN
F 1 "0.1uF" H 7815 7605 50  0000 L CNN
F 2 "kicad-footprints:C_0603_1608Metric_Pad1.05x0.95mm_HandSolder" H 7738 7500 50  0001 C CNN
F 3 "" H 7700 7650 50  0001 C CNN
	1    7700 7650
	1    0    0    -1  
$EndComp
$Comp
L chip_media-cache-2018-09-25-05-03-38:C C39
U 1 1 5BBE0921
P 8150 7650
F 0 "C39" H 8265 7696 50  0000 L CNN
F 1 "0.1uF" H 8265 7605 50  0000 L CNN
F 2 "kicad-footprints:C_0603_1608Metric_Pad1.05x0.95mm_HandSolder" H 8188 7500 50  0001 C CNN
F 3 "" H 8150 7650 50  0001 C CNN
	1    8150 7650
	1    0    0    -1  
$EndComp
$Comp
L chip_media-cache-2018-09-25-05-03-38:C C40
U 1 1 5BBE0965
P 8600 7650
F 0 "C40" H 8715 7696 50  0000 L CNN
F 1 "0.1uF" H 8715 7605 50  0000 L CNN
F 2 "kicad-footprints:C_0603_1608Metric_Pad1.05x0.95mm_HandSolder" H 8638 7500 50  0001 C CNN
F 3 "" H 8600 7650 50  0001 C CNN
	1    8600 7650
	1    0    0    -1  
$EndComp
$Comp
L chip_media-cache-2018-09-25-05-03-38:C C43
U 1 1 5BBE09DF
P 9050 7650
F 0 "C43" H 9165 7696 50  0000 L CNN
F 1 "0.1uF" H 9165 7605 50  0000 L CNN
F 2 "kicad-footprints:C_0603_1608Metric_Pad1.05x0.95mm_HandSolder" H 9088 7500 50  0001 C CNN
F 3 "" H 9050 7650 50  0001 C CNN
	1    9050 7650
	1    0    0    -1  
$EndComp
$Comp
L chip_media-cache-2018-09-25-05-03-38:C C44
U 1 1 5BBE0A9B
P 9500 7650
F 0 "C44" H 9615 7696 50  0000 L CNN
F 1 "0.1uF" H 9615 7605 50  0000 L CNN
F 2 "kicad-footprints:C_0603_1608Metric_Pad1.05x0.95mm_HandSolder" H 9538 7500 50  0001 C CNN
F 3 "" H 9500 7650 50  0001 C CNN
	1    9500 7650
	1    0    0    -1  
$EndComp
Text GLabel 7700 7400 0    50   Input ~ 0
2V5
Text GLabel 8650 7400 0    50   Input ~ 0
Vcc_CoreFPGA
Wire Wire Line
	8650 7400 8650 7500
Wire Wire Line
	8650 7500 9050 7500
Connection ~ 9050 7500
Wire Wire Line
	9050 7500 9500 7500
Wire Wire Line
	8150 7500 8600 7500
Connection ~ 8650 7500
Connection ~ 8600 7500
Wire Wire Line
	8600 7500 8650 7500
Wire Wire Line
	7700 7500 7700 7400
$Comp
L chip_media-cache-2018-09-25-05-03-38:GND #PWR025
U 1 1 5BBF8D62
P 7700 7800
F 0 "#PWR025" H 7700 7550 50  0001 C CNN
F 1 "GND" H 7705 7627 50  0000 C CNN
F 2 "" H 7700 7800 50  0000 C CNN
F 3 "" H 7700 7800 50  0000 C CNN
	1    7700 7800
	1    0    0    -1  
$EndComp
$Comp
L chip_media-cache-2018-09-25-05-03-38:GND #PWR026
U 1 1 5BBF8DA6
P 8800 7800
F 0 "#PWR026" H 8800 7550 50  0001 C CNN
F 1 "GND" H 8805 7627 50  0000 C CNN
F 2 "" H 8800 7800 50  0000 C CNN
F 3 "" H 8800 7800 50  0000 C CNN
	1    8800 7800
	1    0    0    -1  
$EndComp
Wire Wire Line
	8150 7800 8600 7800
Connection ~ 8600 7800
Wire Wire Line
	8600 7800 8800 7800
Connection ~ 8800 7800
Wire Wire Line
	8800 7800 9050 7800
Connection ~ 9050 7800
Wire Wire Line
	9050 7800 9500 7800
Text GLabel 11700 2400 0    50   Input ~ 0
Osc_In
Text GLabel 11700 2600 0    50   Input ~ 0
Osc_Out
Wire Wire Line
	11700 2400 12050 2400
Wire Wire Line
	11700 2600 12050 2600
Text Label 7850 3800 0    50   ~ 0
ICE_RST
$Comp
L schematicProject-rescue:LED-device D?
U 1 1 5BBADC0E
P 10800 6600
AR Path="/5B95942F/5BBADC0E" Ref="D?"  Part="1" 
AR Path="/5BB736EF/5BBADC0E" Ref="D9"  Part="1" 
F 0 "D9" H 10792 6345 50  0000 C CNN
F 1 "LED" H 10792 6436 50  0000 C CNN
F 2 "LED_SMD:LED_0603_1608Metric" H 10800 6600 50  0001 C CNN
F 3 "~" H 10800 6600 50  0001 C CNN
	1    10800 6600
	1    0    0    -1  
$EndComp
$Comp
L schematicProject-rescue:R-device R?
U 1 1 5BBADC15
P 10350 6600
AR Path="/5B95942F/5BBADC15" Ref="R?"  Part="1" 
AR Path="/5BB736EF/5BBADC15" Ref="R17"  Part="1" 
F 0 "R17" V 10143 6600 50  0000 C CNN
F 1 "1k" V 10234 6600 50  0000 C CNN
F 2 "Resistor_SMD:R_0603_1608Metric_Pad1.05x0.95mm_HandSolder" V 10280 6600 50  0001 C CNN
F 3 "" H 10350 6600 50  0001 C CNN
	1    10350 6600
	0    -1   -1   0   
$EndComp
Wire Wire Line
	10150 6600 10200 6600
Wire Wire Line
	10650 6600 10500 6600
Text GLabel 8150 4000 0    50   Input ~ 0
Osc_In
Text GLabel 8150 4100 0    50   Input ~ 0
Osc_Out
Wire Wire Line
	5200 4300 5550 4300
Wire Wire Line
	5200 4500 5550 4500
Wire Wire Line
	5200 3900 5550 3900
Wire Wire Line
	5200 4000 5550 4000
Wire Wire Line
	5200 4100 5550 4100
Wire Wire Line
	5200 4200 5550 4200
Wire Wire Line
	5200 4400 5550 4400
Wire Wire Line
	5200 4900 5550 4900
Text Label 5200 3900 0    50   ~ 0
IOT_73
Text Label 5200 4000 0    50   ~ 0
IOT_74
Text Label 5200 4100 0    50   ~ 0
IOT_75
Text Label 5200 4200 0    50   ~ 0
IOT_76
Text Label 5200 4500 0    50   ~ 0
IOT_79
Text Label 5200 4300 0    50   ~ 0
IOT_77
Text Label 5200 4400 0    50   ~ 0
IOT_78
Text Label 5200 4900 0    50   ~ 0
IOT_83
Text Label 5200 4600 0    50   ~ 0
IOT_80
Wire Wire Line
	5200 4800 5550 4800
Text Label 5200 4700 0    50   ~ 0
IOT_81
Text Label 5200 4800 0    50   ~ 0
IOT_82
NoConn ~ 5550 5600
NoConn ~ 5550 5700
NoConn ~ 5550 3700
NoConn ~ 5550 3800
NoConn ~ 5550 5400
NoConn ~ 8150 5400
NoConn ~ 8150 5500
Wire Wire Line
	5200 4700 5550 4700
Wire Wire Line
	5200 4600 5550 4600
Wire Wire Line
	5200 6600 5550 6600
Wire Wire Line
	5200 6700 5550 6700
Wire Wire Line
	7800 5700 8150 5700
Wire Wire Line
	7800 6000 8150 6000
Wire Wire Line
	10500 5700 10150 5700
Wire Wire Line
	5200 6500 5550 6500
Wire Wire Line
	5200 6800 5550 6800
Text Label 7800 5700 0    50   ~ 0
IOL_1B
Text Label 7800 6000 0    50   ~ 0
IOL_3A
Text Label 10500 5700 2    50   ~ 0
IOL_8A
Text Label 5200 6500 0    50   ~ 0
IOR_59
Text Label 5200 6700 0    50   ~ 0
IOR_63
Text Label 5200 6600 0    50   ~ 0
IOR_62
Text Label 5200 6800 0    50   ~ 0
IOR_64
Text Label 10100 4000 2    50   ~ 0
IOB_30
Wire Wire Line
	10100 4600 9750 4600
Wire Wire Line
	10100 4300 9750 4300
Wire Wire Line
	10100 4400 9750 4400
Wire Wire Line
	10100 4500 9750 4500
Wire Wire Line
	10100 4200 9750 4200
Text Label 10350 4900 2    50   ~ 0
IOB_43_CBSEL1
Text Label 10350 4800 2    50   ~ 0
IOB_42_CBSEL0
Wire Wire Line
	10350 4900 9750 4900
Wire Wire Line
	10350 4800 9750 4800
Text Label 7800 5600 0    50   ~ 0
IOL_1A
Wire Wire Line
	7800 4700 8150 4700
Wire Wire Line
	7800 4800 8150 4800
Wire Wire Line
	7800 4300 8150 4300
Wire Wire Line
	7800 4400 8150 4400
Wire Wire Line
	7800 4500 8150 4500
Wire Wire Line
	7800 4600 8150 4600
Wire Wire Line
	7800 4900 8150 4900
Wire Wire Line
	7800 4200 8150 4200
Wire Wire Line
	10500 6500 10150 6500
Text Label 10500 6500 2    50   ~ 0
IOL_12A
Wire Wire Line
	7800 5600 8150 5600
$Comp
L schematicProject-rescue:Conn_02x11_Odd_Even-Connector J?
U 1 1 5C05BF9B
P 12900 7250
AR Path="/5C05BF9B" Ref="J?"  Part="1" 
AR Path="/5B7D7B54/5C05BF9B" Ref="J?"  Part="1" 
AR Path="/5BB736EF/5C05BF9B" Ref="J6"  Part="1" 
F 0 "J6" H 12950 7967 50  0000 C CNN
F 1 "Conn_02x11_Odd_Even" H 12950 7876 50  0000 C CNN
F 2 "kicad footprints:PinHeader_2x11_P2.54mm_Vertical" H 12900 7250 50  0001 C CNN
F 3 "~" H 12900 7250 50  0001 C CNN
	1    12900 7250
	1    0    0    -1  
$EndComp
$Comp
L chip_media-cache-2018-09-25-05-03-38:GND #PWR?
U 1 1 5BBED9FE
P 3400 10000
AR Path="/5B7D7B54/5BBED9FE" Ref="#PWR?"  Part="1" 
AR Path="/5BB736EF/5BBED9FE" Ref="#PWR0111"  Part="1" 
F 0 "#PWR0111" H 3400 9750 50  0001 C CNN
F 1 "GND" H 3405 9827 50  0000 C CNN
F 2 "" H 3400 10000 50  0000 C CNN
F 3 "" H 3400 10000 50  0000 C CNN
	1    3400 10000
	1    0    0    -1  
$EndComp
$Comp
L chip_media-cache-2018-09-25-05-03-38:C C49
U 1 1 5BC5B539
P 7250 9350
F 0 "C49" H 7365 9396 50  0000 L CNN
F 1 "0,1uF" H 7365 9305 50  0000 L CNN
F 2 "kicad-footprints:C_0603_1608Metric_Pad1.05x0.95mm_HandSolder" H 7288 9200 50  0001 C CNN
F 3 "" H 7250 9350 50  0000 C CNN
	1    7250 9350
	1    0    0    -1  
$EndComp
$Comp
L chip_media-cache-2018-09-25-05-03-38:GND #PWR0112
U 1 1 5BC7646C
P 7250 9500
F 0 "#PWR0112" H 7250 9250 50  0001 C CNN
F 1 "GND" H 7255 9327 50  0000 C CNN
F 2 "" H 7250 9500 50  0000 C CNN
F 3 "" H 7250 9500 50  0000 C CNN
	1    7250 9500
	1    0    0    -1  
$EndComp
Text GLabel 7650 9100 2    50   Output ~ 0
Vcc_FPGA
Wire Wire Line
	6950 9100 7250 9100
Connection ~ 4900 7500
Connection ~ 4450 7500
$Comp
L chip_media-cache-2018-09-25-05-03-38:GND #PWR0115
U 1 1 5BEE2DE1
P 15350 8750
F 0 "#PWR0115" H 15350 8500 50  0001 C CNN
F 1 "GND" H 15355 8577 50  0000 C CNN
F 2 "" H 15350 8750 50  0000 C CNN
F 3 "" H 15350 8750 50  0000 C CNN
	1    15350 8750
	1    0    0    -1  
$EndComp
Wire Wire Line
	7850 3800 8150 3800
Text Label 15000 7800 0    50   ~ 0
ICE_RST
Wire Wire Line
	15000 7800 15350 7800
Text HLabel 15350 7800 2    50   Input ~ 0
ICE_RST
Text HLabel 6550 10000 2    50   BiDi ~ 0
ICE_SCK
Text HLabel 3400 9800 0    50   BiDi ~ 0
ICE_MOSI
Text HLabel 6400 10100 2    50   BiDi ~ 0
ICE_MISO
Text HLabel 2300 9700 0    50   BiDi ~ 0
ICE_CS
Wire Wire Line
	6950 9800 6950 9100
Wire Wire Line
	6400 9800 6950 9800
NoConn ~ 6400 9700
$Comp
L chip_media-cache-2018-09-25-05-03-38:R R18
U 1 1 5C054D22
P 6550 9350
F 0 "R18" H 6620 9396 50  0000 L CNN
F 1 "4.7K" H 6620 9305 50  0000 L CNN
F 2 "Resistor_SMD:R_0603_1608Metric_Pad1.05x0.95mm_HandSolder" V 6480 9350 50  0001 C CNN
F 3 "" H 6550 9350 50  0000 C CNN
	1    6550 9350
	1    0    0    -1  
$EndComp
Wire Wire Line
	2850 9900 3400 9900
Connection ~ 6950 9100
Wire Wire Line
	6550 9200 6550 9100
Connection ~ 6550 9100
Wire Wire Line
	6550 9100 6750 9100
Connection ~ 6750 9100
Wire Wire Line
	6750 9100 6950 9100
Wire Wire Line
	6400 9900 6750 9900
Wire Wire Line
	6400 10000 6550 10000
Wire Wire Line
	6550 10000 6550 9500
Wire Wire Line
	7250 9100 7250 9200
$Comp
L chip_media-cache-2018-09-25-05-03-38:R R15
U 1 1 5C1F4DB0
P 2400 9350
F 0 "R15" H 2470 9396 50  0000 L CNN
F 1 "4.7K" H 2470 9305 50  0000 L CNN
F 2 "Resistor_SMD:R_0603_1608Metric_Pad1.05x0.95mm_HandSolder" V 2330 9350 50  0001 C CNN
F 3 "" H 2400 9350 50  0000 C CNN
	1    2400 9350
	1    0    0    -1  
$EndComp
$Comp
L symbols:S25FL132K0XNFV010 U7
U 1 1 5BF550C1
P 3400 9700
F 0 "U7" H 4900 10087 60  0000 C CNN
F 1 "S25FL132K0XNFV010" H 4900 9981 60  0000 C CNN
F 2 "footprints:S25FL132K0XNFV010" H 4900 9940 60  0001 C CNN
F 3 "" H 3400 9700 60  0000 C CNN
	1    3400 9700
	1    0    0    -1  
$EndComp
Wire Wire Line
	2850 9100 2850 9900
Wire Wire Line
	6750 9100 6750 9900
$Comp
L chip_media-cache-2018-09-25-05-03-38:R R1
U 1 1 5C3B7F6A
P 15350 8500
F 0 "R1" H 15420 8546 50  0000 L CNN
F 1 "1K" H 15420 8455 50  0000 L CNN
F 2 "Resistor_SMD:R_0603_1608Metric_Pad1.05x0.95mm_HandSolder" V 15280 8500 50  0001 C CNN
F 3 "" H 15350 8500 50  0000 C CNN
	1    15350 8500
	1    0    0    -1  
$EndComp
Wire Wire Line
	15350 7800 15350 7900
Wire Wire Line
	15350 8650 15350 8750
Text HLabel 3200 1750 0    50   Input ~ 0
Vcc_FPGA
Wire Wire Line
	3200 1750 3300 1750
Wire Wire Line
	3300 1750 3300 1950
Connection ~ 3300 1950
Text HLabel 7950 2600 0    50   Input ~ 0
Vcc_Core_FPGA
Wire Wire Line
	7950 2600 8050 2600
Wire Wire Line
	8050 2600 8050 2700
Connection ~ 8050 2800
Wire Wire Line
	8050 2800 8150 2800
Text GLabel 4300 7250 0    50   Output ~ 0
Vcc_FPGA
Wire Wire Line
	4300 7250 4450 7250
Text HLabel 4350 7050 0    50   Input ~ 0
Vcc_FPGA
Wire Wire Line
	4350 7050 4450 7050
Wire Wire Line
	4450 7050 4450 7250
Connection ~ 4450 7250
Wire Wire Line
	4450 7250 4450 7500
Wire Wire Line
	7250 9100 7650 9100
Wire Wire Line
	4450 7500 4900 7500
Connection ~ 7250 9100
Text HLabel 11150 6600 2    50   Input ~ 0
Vcc_FPGA
Wire Wire Line
	10950 6600 11150 6600
Text HLabel 7500 3550 2    50   Input ~ 0
Vcc_FPGA
Text HLabel 10000 3700 2    50   Input ~ 0
Vcc_FPGA
Text HLabel 10550 5400 2    50   Input ~ 0
Vcc_FPGA
Text HLabel 7400 5400 2    50   Input ~ 0
Vcc_FPGA
Text HLabel 3650 1450 2    50   Input ~ 0
Vcc_FPGA
Wire Wire Line
	3300 1450 3650 1450
Text HLabel 6900 1250 0    50   Input ~ 0
Vcc_FPGA
Wire Wire Line
	6900 1250 7450 1250
Wire Wire Line
	10150 5400 10300 5400
Connection ~ 10300 5400
Wire Wire Line
	10300 5400 10550 5400
Wire Wire Line
	7500 3550 7500 3700
Connection ~ 7500 3700
Wire Wire Line
	8150 3700 7850 3700
Text Label 7850 3700 0    50   ~ 0
C_DONE
$Comp
L device:LED D11
U 1 1 5C0D8DFC
P 14400 8000
F 0 "D11" V 14438 7883 50  0000 R CNN
F 1 "LED" V 14347 7883 50  0000 R CNN
F 2 "LED_SMD:LED_0603_1608Metric" H 14400 8000 50  0001 C CNN
F 3 "~" H 14400 8000 50  0001 C CNN
	1    14400 8000
	0    -1   -1   0   
$EndComp
$Comp
L chip_media-cache-2018-09-25-05-03-38:GND #PWR0113
U 1 1 5C0D8E03
P 14400 8700
F 0 "#PWR0113" H 14400 8450 50  0001 C CNN
F 1 "GND" H 14405 8527 50  0000 C CNN
F 2 "" H 14400 8700 50  0000 C CNN
F 3 "" H 14400 8700 50  0000 C CNN
	1    14400 8700
	1    0    0    -1  
$EndComp
Wire Wire Line
	14400 8150 14400 8300
Text Label 14050 7750 0    50   ~ 0
C_DONE
Wire Wire Line
	14050 7750 14400 7750
$Comp
L chip_media-cache-2018-09-25-05-03-38:R R23
U 1 1 5C0D8E0D
P 14400 8450
F 0 "R23" H 14470 8496 50  0000 L CNN
F 1 "1K" H 14470 8405 50  0000 L CNN
F 2 "Resistor_SMD:R_0603_1608Metric_Pad1.05x0.95mm_HandSolder" V 14330 8450 50  0001 C CNN
F 3 "" H 14400 8450 50  0000 C CNN
	1    14400 8450
	1    0    0    -1  
$EndComp
Wire Wire Line
	14400 7750 14400 7850
Wire Wire Line
	14400 8600 14400 8700
$Comp
L device:LED D10
U 1 1 5BDEE0EE
P 15350 8050
F 0 "D10" V 15388 7933 50  0000 R CNN
F 1 "LED" V 15297 7933 50  0000 R CNN
F 2 "LED_SMD:LED_0603_1608Metric" H 15350 8050 50  0001 C CNN
F 3 "~" H 15350 8050 50  0001 C CNN
	1    15350 8050
	0    -1   -1   0   
$EndComp
Wire Wire Line
	15350 8200 15350 8350
Text Label 7700 4600 2    50   ~ 0
FMC_A21
Text Label 7700 4500 2    50   ~ 0
FMC_A22
Text Label 7700 4900 2    50   ~ 0
FMC_A23
Text HLabel 10150 6200 2    50   Input ~ 0
FCM_CLK
Text HLabel 10150 6100 2    50   Input ~ 0
FCM_NOE
Text HLabel 10150 6000 2    50   Input ~ 0
FCM_NWE
Text HLabel 10150 5900 2    50   Input ~ 0
FCM_NWAIT
Text HLabel 10150 5800 2    50   Input ~ 0
FCM_NE1
Text HLabel 8150 6100 0    50   Input ~ 0
FCM_NADV
Text HLabel 8150 5900 0    50   Input ~ 0
FCM_NBL0
Text HLabel 8150 5800 0    50   Input ~ 0
FCM_NBL1
Text Label 7700 4000 2    50   ~ 0
LED_FMC
Wire Wire Line
	7500 6300 7150 6300
Wire Wire Line
	7500 6200 7150 6200
Wire Wire Line
	7500 6400 7150 6400
Wire Wire Line
	7500 6100 7150 6100
Wire Wire Line
	7500 6000 7150 6000
Text Label 7500 6400 2    50   ~ 0
IOR_72
Text Label 7500 6200 2    50   ~ 0
IOR_70
Text Label 7500 6300 2    50   ~ 0
IOR_71
Text Label 7500 6100 2    50   ~ 0
IOR_69
Text Label 7500 6000 2    50   ~ 0
IOR_68
Text Label 7500 5900 2    50   ~ 0
IOR_67
Wire Wire Line
	7500 5700 7150 5700
Text Label 7500 5800 2    50   ~ 0
IOR_66
Text Label 7500 5700 2    50   ~ 0
IOR_65
Wire Wire Line
	7500 5800 7150 5800
Wire Wire Line
	7500 5900 7150 5900
Text Label 7800 6600 0    50   ~ 0
FMC_A24
Wire Wire Line
	10100 4700 9750 4700
Wire Wire Line
	10100 4100 9750 4100
Wire Wire Line
	10100 4000 9750 4000
Text Label 7550 6500 2    50   ~ 0
FMC_D12
Wire Wire Line
	7150 6600 7550 6600
Wire Wire Line
	7550 6800 7150 6800
Wire Wire Line
	7150 6700 7550 6700
Wire Wire Line
	7150 6500 7550 6500
Wire Wire Line
	7800 6600 8150 6600
Wire Wire Line
	5200 5900 5550 5900
Wire Wire Line
	5200 5800 5550 5800
Text Label 7700 4100 2    50   ~ 0
IOT_88
Text Label 7700 4200 2    50   ~ 0
IOT_89
Text Label 7700 4300 2    50   ~ 0
IOT_90
Text Label 7700 4400 2    50   ~ 0
IOT_91
Wire Wire Line
	7800 6300 8150 6300
Wire Wire Line
	7800 6400 8150 6400
Text Label 7800 6300 0    50   ~ 0
IOL_4B
Text Label 7800 6400 0    50   ~ 0
IOL_5A
Text Label 7800 6200 0    50   ~ 0
IOL_4A
Wire Wire Line
	7800 6200 8150 6200
Wire Wire Line
	7800 6700 8150 6700
Text Label 7800 6700 0    50   ~ 0
IOL_7B
Text Label 7800 6500 0    50   ~ 0
IOL_5B
Wire Wire Line
	7800 6500 8150 6500
Text Label 7550 6600 2    50   ~ 0
IOR_48
Text Label 7550 6800 2    50   ~ 0
IOR_49
Text Label 7800 4200 0    31   ~ 0
IOB_36_GBIN4
Text Label 7800 4400 0    50   ~ 0
IOB_24
Text Label 7800 4500 0    50   ~ 0
IOB_25
Text Label 7800 4600 0    50   ~ 0
IOB_26
Text Label 7800 4700 0    50   ~ 0
IOB_27
Text Label 7800 4800 0    50   ~ 0
IOB_28
Text Label 7800 4900 0    50   ~ 0
IOB_29
Wire Wire Line
	12350 7750 12700 7750
Wire Wire Line
	12350 7650 12700 7650
Wire Wire Line
	12350 7250 12700 7250
Wire Wire Line
	12350 7350 12700 7350
Wire Wire Line
	12350 7050 12700 7050
Wire Wire Line
	13550 7150 13200 7150
Wire Wire Line
	12350 7150 12700 7150
Wire Wire Line
	13550 7250 13200 7250
Wire Wire Line
	13550 7350 13200 7350
Wire Wire Line
	12350 7550 12700 7550
Text Label 12350 7050 0    50   ~ 0
IOT_73
Text Label 13550 7150 2    50   ~ 0
IOT_74
Text Label 12350 7150 0    50   ~ 0
IOT_75
Text Label 13550 7250 2    50   ~ 0
IOT_76
Text Label 12350 7350 0    50   ~ 0
IOT_79
Text Label 12350 7250 0    50   ~ 0
IOT_77
Text Label 13550 7350 2    50   ~ 0
IOT_78
Text Label 12350 7550 0    50   ~ 0
IOT_83
Text Label 13550 7450 2    50   ~ 0
IOT_80
Wire Wire Line
	13550 7550 13200 7550
Text Label 12350 7450 0    50   ~ 0
IOT_81
Text Label 13550 7550 2    50   ~ 0
IOT_82
Wire Wire Line
	12350 7450 12700 7450
Wire Wire Line
	13550 7450 13200 7450
Wire Wire Line
	12500 4800 12850 4800
Wire Wire Line
	13700 4800 13350 4800
Wire Wire Line
	12500 4900 12850 4900
Wire Wire Line
	12500 4700 12850 4700
Text Label 12500 4900 0    50   ~ 0
IOR_59
Text Label 13700 4800 2    50   ~ 0
IOR_63
Text Label 12500 4800 0    50   ~ 0
IOR_62
Text Label 12500 4700 0    50   ~ 0
IOR_64
Text Label 12200 5100 0    50   ~ 0
IOB_43_CBSEL1
Text Label 13950 5000 2    50   ~ 0
IOB_42_CBSEL0
Wire Wire Line
	13950 5000 13350 5000
Wire Wire Line
	12350 6950 12700 6950
Wire Wire Line
	13550 6950 13200 6950
Wire Wire Line
	13550 7050 13200 7050
Wire Wire Line
	12350 6850 12700 6850
Wire Wire Line
	13550 6850 13200 6850
Text Label 13550 7050 2    50   ~ 0
IOR_72
Text Label 13550 6950 2    50   ~ 0
IOR_70
Text Label 12350 6950 0    50   ~ 0
IOR_71
Text Label 12350 6850 0    50   ~ 0
IOR_69
Text Label 13550 6850 2    50   ~ 0
IOR_68
Text Label 13550 6750 2    50   ~ 0
IOR_67
Wire Wire Line
	13700 4700 13350 4700
Text Label 12350 6750 0    50   ~ 0
IOR_66
Text Label 13700 4700 2    50   ~ 0
IOR_65
Wire Wire Line
	12350 6750 12700 6750
Wire Wire Line
	13550 6750 13200 6750
Text Label 12350 7650 0    50   ~ 0
IOT_89
Text Label 13550 7750 2    50   ~ 0
IOT_90
Text Label 12350 7750 0    50   ~ 0
IOT_91
Wire Wire Line
	13700 4900 13350 4900
Text Label 12450 5000 0    50   ~ 0
IOR_48
Text Label 13700 4900 2    50   ~ 0
IOR_49
Wire Wire Line
	13550 7750 13200 7750
Wire Wire Line
	12850 5000 12450 5000
Wire Wire Line
	12850 5100 12200 5100
Wire Wire Line
	8150 2700 8050 2700
Connection ~ 8050 2700
Wire Wire Line
	8050 2700 8050 2800
Wire Wire Line
	8150 3000 8050 3000
Wire Wire Line
	8050 3000 8050 2900
Wire Wire Line
	8150 2900 8050 2900
Connection ~ 8050 2900
Wire Wire Line
	8050 2900 8050 2800
Wire Wire Line
	13550 7650 13200 7650
Text Label 13550 7650 2    50   ~ 0
IOT_88
$Comp
L Connector:Conn_02x05_Odd_Even J2
U 1 1 5C95F295
P 13050 4900
F 0 "J2" H 13100 5317 50  0000 C CNN
F 1 "Conn_02x05_Odd_Even" H 13100 5226 50  0000 C CNN
F 2 "kicad footprints:PinHeader_2x05_P2.54mm_Vertical" H 13050 4900 50  0001 C CNN
F 3 "~" H 13050 4900 50  0001 C CNN
	1    13050 4900
	1    0    0    -1  
$EndComp
NoConn ~ 13350 5100
Wire Wire Line
	2900 4850 2550 4850
Wire Wire Line
	2850 9100 6550 9100
Wire Wire Line
	2300 9700 2400 9700
Wire Wire Line
	2400 9500 2400 9700
Wire Wire Line
	2400 9700 3400 9700
Wire Bus Line
	2450 4000 2450 4950
Wire Bus Line
	3300 3600 3300 5350
Connection ~ 2400 9700
$Comp
L chip_media-cache-2018-09-25-05-03-38:GND #PWR?
U 1 1 5C6623A7
P 2400 9200
F 0 "#PWR?" H 2400 8950 50  0001 C CNN
F 1 "GND" H 2405 9027 50  0000 C CNN
F 2 "" H 2400 9200 50  0000 C CNN
F 3 "" H 2400 9200 50  0000 C CNN
	1    2400 9200
	-1   0    0    1   
$EndComp
$EndSCHEMATC
