EESchema Schematic File Version 4
LIBS:schematicProject-cache
EELAYER 26 0
EELAYER END
$Descr A3 16535 11693
encoding utf-8
Sheet 1 5
Title "Poryecto Embebidos - Ana Moreno"
Date ""
Rev ""
Comp "Universidad Nacional de Colombia-Sede Bogotá"
Comment1 ""
Comment2 ""
Comment3 ""
Comment4 ""
$EndDescr
Wire Wire Line
	11350 5950 8950 5950
$Sheet
S 1500 4650 2550 2400
U 5BB31CB8
F0 "power" 59
F1 "power.sch" 67
F2 "D+" O R 4050 6650 51 
F3 "D-" O R 4050 6800 51 
F4 "VM" I R 4050 5600 51 
F5 "STM3V3" O R 4050 5700 50 
F6 "ON_3V3" O R 4050 6950 50 
F7 "Vcc_Core_FPGA" I R 4050 4800 50 
F8 "Vcc_FPGA" I R 4050 4900 50 
$EndSheet
Wire Wire Line
	8950 2900 11350 2900
Wire Wire Line
	8950 3050 11350 3050
Wire Wire Line
	8950 3200 11350 3200
Wire Wire Line
	8950 3350 11350 3350
Wire Wire Line
	8950 3500 11350 3500
Wire Wire Line
	8950 3650 11350 3650
Wire Wire Line
	8950 3800 11350 3800
Wire Wire Line
	8950 3950 11350 3950
Wire Wire Line
	8950 6900 11350 6900
Wire Wire Line
	8950 7050 11350 7050
Wire Wire Line
	8950 6050 11350 6050
Wire Wire Line
	8950 6150 11350 6150
Wire Wire Line
	8950 6250 11350 6250
Wire Wire Line
	8950 6350 11350 6350
Wire Wire Line
	8950 6450 11350 6450
Wire Wire Line
	8950 6550 11350 6550
Wire Wire Line
	13400 4300 14200 4300
Wire Wire Line
	14200 4300 14200 6000
Wire Wire Line
	14200 6000 13900 6000
Wire Wire Line
	13900 6100 14300 6100
Wire Wire Line
	14300 6100 14300 4200
Wire Wire Line
	14300 4200 13400 4200
Wire Wire Line
	13400 4100 14400 4100
Wire Wire Line
	14400 4100 14400 6200
Wire Wire Line
	14400 6200 13900 6200
Wire Wire Line
	13400 4000 14500 4000
Wire Wire Line
	14500 4000 14500 6300
Wire Wire Line
	14500 6300 13900 6300
Wire Wire Line
	13400 3900 14600 3900
Wire Wire Line
	14600 3900 14600 6400
Wire Wire Line
	14600 6400 13900 6400
Wire Wire Line
	4900 6650 4900 9050
Wire Wire Line
	4900 9050 10700 9050
Wire Wire Line
	10700 9050 10700 7750
Wire Wire Line
	10700 7750 11350 7750
Wire Wire Line
	4050 6650 4900 6650
Wire Wire Line
	4050 6800 4750 6800
Wire Wire Line
	4750 6800 4750 9200
Wire Wire Line
	4750 9200 10900 9200
Wire Wire Line
	10900 9200 10900 7850
Wire Wire Line
	10900 7850 11350 7850
Wire Wire Line
	4050 5600 5000 5600
Wire Wire Line
	5000 5600 5000 4150
Wire Wire Line
	5000 4150 5650 4150
Wire Wire Line
	4050 5700 5100 5700
Wire Wire Line
	5100 5700 5100 4300
Wire Wire Line
	5100 4300 5650 4300
Wire Wire Line
	4050 6950 4650 6950
Wire Wire Line
	4650 6950 4650 9300
Wire Wire Line
	4650 9300 11000 9300
Wire Wire Line
	11000 9300 11000 8250
Wire Wire Line
	11000 8250 11350 8250
Wire Wire Line
	4050 4800 4350 4800
Wire Wire Line
	4350 4800 4350 1650
Wire Wire Line
	4350 1650 13900 1650
Wire Wire Line
	13900 1650 13900 2600
Wire Wire Line
	13900 2600 13400 2600
Wire Wire Line
	13400 2450 13800 2450
Wire Wire Line
	13800 2450 13800 1750
Wire Wire Line
	13800 1750 4450 1750
Wire Wire Line
	4450 1750 4450 4900
Wire Wire Line
	4450 4900 4050 4900
$Sheet
S 11350 2100 2050 3350
U 5BB736EF
F0 "FPGAice40hx1k" 50
F1 "FPGAice40.sch" 50
F2 "FCM_CLK" I L 11350 3950 50 
F3 "FCM_NOE" I L 11350 3200 50 
F4 "FCM_NWE" I L 11350 3650 50 
F5 "FCM_NWAIT" I L 11350 3350 50 
F6 "FCM_NE1" I L 11350 3500 50 
F7 "FCM_NADV" I L 11350 3800 50 
F8 "FCM_NBL0" I L 11350 2900 50 
F9 "FCM_NBL1" I L 11350 3050 50 
F10 "ICE_SCK" B R 13400 4000 50 
F11 "ICE_MOSI" B R 13400 4100 50 
F12 "ICE_MISO" B R 13400 4200 50 
F13 "ICE_CS" B R 13400 4300 50 
F14 "ICE_RST" I R 13400 3900 50 
F15 "Vcc_FPGA" I R 13400 2450 50 
F16 "Vcc_Core_FPGA" I R 13400 2600 50 
F17 "FMC_D[15..0]" B L 11350 4500 50 
F18 "FMC_A[24..16]" I L 11350 4700 50 
F19 "FMC_A22" I L 11350 5150 50 
$EndSheet
$Sheet
S 5650 2650 3300 5700
U 5B7D7B54
F0 "stm32f446re" 60
F1 "stm32f446re.sch" 60
F2 "JTDI" I R 8950 6350 50 
F3 "JTMS" I R 8950 6450 50 
F4 "JTCK" I R 8950 6250 50 
F5 "JTRST" I R 8950 6150 50 
F6 "JNRST" I R 8950 5950 50 
F7 "BOOT0" T R 8950 6550 50 
F8 "JTDO" I R 8950 6050 50 
F9 "FMC_NBL1" O R 8950 3050 50 
F10 "FMC_NBL0" O R 8950 2900 50 
F11 "FMC_NOE" O R 8950 3200 50 
F12 "FMC_NWAIT" O R 8950 3350 50 
F13 "FMC_NE1" O R 8950 3500 50 
F14 "FMC_NWE" O R 8950 3650 50 
F15 "FMC_NADV" O R 8950 3800 50 
F16 "VM" I L 5650 4150 50 
F17 "STM3V3" I L 5650 4300 50 
F18 "FMC_CLK" O R 8950 3950 50 
F19 "UART_TX" I R 8950 6900 50 
F20 "UART_RX" I R 8950 7050 50 
F21 "FMC_D[15..0]" B R 8950 4500 50 
F22 "FMC_A22" I R 8950 5150 50 
F23 "FMC_A[24..16]" O R 8950 4700 50 
$EndSheet
Wire Bus Line
	8950 4500 11350 4500
Wire Bus Line
	8950 4700 11350 4700
Wire Wire Line
	11350 5150 8950 5150
$Sheet
S 11350 5750 2550 2850
U 5BA1DFB2
F0 "Onion2+" 50
F1 "OMEGA2.sch" 50
F2 "D+" I L 11350 7750 50 
F3 "D-" I L 11350 7850 50 
F4 "ON_3V3" I L 11350 8250 50 
F5 "ON_RX0" I L 11350 6900 50 
F6 "ON_TX0" I L 11350 7050 50 
F7 "ON_MISO" I R 13900 6100 50 
F8 "ON_MOSI" O R 13900 6200 50 
F9 "ON_CLK" O R 13900 6300 50 
F10 "JTMS" O L 11350 6450 50 
F11 "JTCK" O L 11350 6250 50 
F12 "JTDI" O L 11350 6350 50 
F13 "JTDO" I L 11350 6050 50 
F14 "JTRST" O L 11350 6150 50 
F15 "BOOT0" O L 11350 6550 50 
F16 "JNRST" O L 11350 5950 50 
F17 "ON_ICE_RST" O R 13900 6400 50 
F18 "ON_CS" O R 13900 6000 50 
$EndSheet
$EndSCHEMATC
